<?xml version="1.0" standalone="no"?>
<!DOCTYPE svg PUBLIC "-//W3C//DTD SVG 1.1//EN" "http://www.w3.org/Graphics/SVG/1.1/DTD/svg11.dtd" >
<!--
2016-5-11: Created.
-->
<svg xmlns="http://www.w3.org/2000/svg">
<metadata>
Created by FontForge 20120731 at Wed May 11 22:10:28 2016
 By Apache
Created by Apache with FontForge 2.0 (http://fontforge.sf.net)
</metadata>
<defs>
<font id="Flaticon" horiz-adv-x="512" >
  <font-face 
    font-family="Flaticon"
    font-weight="500"
    font-stretch="normal"
    units-per-em="512"
    panose-1="2 0 6 3 0 0 0 0 0 0"
    ascent="448"
    descent="-64"
    bbox="-0.00106812 -64 512.002 448"
    underline-thickness="25.6"
    underline-position="-51.2"
    unicode-range="U+0020-F10F"
  />
    <missing-glyph />
    <glyph glyph-name="space" unicode=" " horiz-adv-x="200" 
 />
    <glyph glyph-name="uniF103" unicode="&#xf103;" 
d="M109.135 245.506c-24.8799 0 -48.2646 9.69531 -65.8506 27.2812c-27.8711 27.8506 -35.1553 70.5 -18.1602 106.115c0.897461 1.88379 2.64355 3.20312 4.70215 3.55664c1.99414 0.344727 4.12598 -0.305664 5.60938 -1.78906l57.8662 -57.8438
c8.5127 -8.54492 23.3691 -8.54492 31.8672 -0.0224609c4.26465 4.26562 6.62305 9.91797 6.62305 15.9443c0 6.01074 -2.35449 11.6729 -6.62305 15.9385l-57.8457 57.8594c-1.4668 1.47949 -2.12695 3.56348 -1.78418 5.61621
c0.353516 2.05371 1.67285 3.80469 3.55664 4.70215c12.4883 5.9541 26.4062 9.09961 40.2861 9.09961c24.8428 0 48.2393 -9.67871 65.8145 -27.2588c24.6885 -24.6797 33.3926 -61.3594 22.7988 -94.4619l54.9531 -55.001l-60.209 -60.1973l-54.9785 54.9404
c-9.25 -2.94922 -18.8525 -4.47949 -28.626 -4.47949zM402.899 138.499c24.8594 0 48.2393 -9.69531 65.8193 -27.2793c27.8721 -27.8555 35.1504 -70.5 18.1553 -106.11c-0.895508 -1.88379 -2.64844 -3.19824 -4.70117 -3.55664
c-2.0752 -0.339844 -4.13867 0.316406 -5.61719 1.78906l-57.8535 57.8438c-8.50781 8.53027 -23.332 8.53516 -31.8574 0.00488281c-4.27441 -4.26953 -6.62793 -9.92188 -6.62793 -15.9434c0.00488281 -6.01074 2.3584 -11.6631 6.61816 -15.918l57.8438 -57.8711
c1.46582 -1.47852 2.13672 -3.56348 1.7832 -5.61719c-0.352539 -2.05273 -1.67188 -3.80566 -3.55664 -4.70117c-12.4873 -5.95312 -26.4033 -9.10547 -40.291 -9.10547c-24.8398 0 -48.2373 9.68066 -65.8174 27.2607c-24.6729 24.6953 -33.3701 61.3643 -22.7988 94.457
l-60.8281 60.8252l60.251 60.2402l60.8105 -60.8154c9.25684 2.95605 18.874 4.49707 28.668 4.49707zM378.147 275.647l-5.53418 5.54785l-141.319 -141.297c-1.14453 1.91504 -2.46387 3.76367 -4.07812 5.38281l-23.7725 23.75
c-1.6416 1.64746 -3.50391 2.96191 -5.4209 4.11719l141.317 141.291l-2.99219 2.97168s-7.95801 8.87598 -2.50195 16.2285c14.1875 19.043 3.80664 68.3994 -79.8887 83.0088c-11.501 2.02637 -13.5547 4.43945 -2.48145 8.24805
c27.5869 9.48633 85.5742 11.459 172.389 -75.3389c0 0 34.9561 -40.5029 30.5068 -57.6494c-1.06152 -3.91504 7.30469 -15.7334 12.3389 -22.668l6.07617 6.07031c6.04297 6.0332 15.8652 6.0332 21.8857 0.00585938
c6.04395 -6.04883 6.03809 -15.8555 0.0107422 -21.9141l-36.4854 -36.4375c-6.07031 -6.03809 -15.8291 -6.04297 -21.8984 0c-6.06543 6.02637 -6.07031 15.8496 0.015625 21.8662l4.6084 4.62793c-0.0996094 0.0478516 -0.157227 0.0478516 -0.18457 0.0683594
c-8.42969 6.09473 -34.8506 32.1416 -44.2285 27.4229c-8.29785 -4.11816 -18.3623 4.69727 -18.3623 4.69727zM193.932 159.53l23.7744 -23.7617c5.23047 -5.21875 5.53613 -14.0645 0.71875 -19.6387l-140.838 -157.092
c-4.83496 -5.57324 -13.0576 -5.86523 -18.2871 -0.639648l-42.7754 42.7451c-5.22656 5.22559 -4.91406 13.4639 0.69043 18.3037l157.046 140.795c5.5791 4.8457 14.4561 4.50879 19.6709 -0.711914z" />
    <glyph glyph-name="uniF10A" unicode="&#xf10a;" 
d="M367.189 364.086v-84.7148l137.72 -66.999c4.13477 -1.96582 6.85352 -6.0459 7.07617 -10.6211c0.22168 -4.57617 -2.09082 -8.90039 -6.01953 -11.2559l-86.8359 -52.1064v-91.0225c0 -4.68945 -2.63965 -8.97852 -6.82324 -11.0908l-150.704 -76.125
c-1.7627 -0.889648 -3.68262 -1.33594 -5.60352 -1.33594c-1.91992 0 -3.8418 0.446289 -5.60352 1.33594l-150.705 76.125c-4.18359 2.1123 -6.82324 6.40137 -6.82324 11.0908v91.0225l-86.8359 52.1064c-3.92676 2.35547 -6.24023 6.67969 -6.01758 11.2559
c0.22168 4.5752 2.94238 8.65527 7.07715 10.6221l137.717 66.9912v83.3584v0.00195312v0.000976562c0 4.68457 2.63281 8.96875 6.80957 11.085l98.7666 50.0332c3.53125 1.78906 7.70117 1.78906 11.2324 0l98.7637 -50.0371
c3.76562 -1.90625 6.35254 -5.58496 6.80957 -9.7207zM379.175 245.369l-11.9834 6.10547v-12.123zM256.001 398.828l-71.2705 -36.1025l71.2705 -36.1064l71.2666 36.1035zM144.806 251.473l-11.9785 -6.10352l11.9785 -6.01465v12.1182zM38.6973 199.876l125.671 -75.4092
l66.7734 43.7324l-125.999 63.2578zM243.574 -8.5625v155.194l-72.1064 -47.2246c-2.06445 -1.35254 -4.43359 -2.03125 -6.80859 -2.03125c-2.20996 0 -4.42383 0.587891 -6.39355 1.77051l-40.5439 24.3291v-68.4648zM256.001 183.529l86.3389 43.3467v115.622
l-80.7207 -40.8945c-1.7666 -0.894531 -3.69141 -1.3418 -5.61621 -1.3418c-1.92773 0 -3.85254 0.447266 -5.61719 1.3418l-80.7256 40.8975v-115.624zM394.278 55.0107v68.4648l-40.5459 -24.3301c-1.96973 -1.18359 -4.18359 -1.77148 -6.39355 -1.77148
c-2.37305 0 -4.74316 0.679688 -6.80762 2.03125l-72.1045 47.2246v-155.192zM347.627 124.467l125.675 75.4102l-66.4482 31.5811l-125.998 -63.2588z" />
    <glyph glyph-name="uniF105" unicode="&#xf105;" 
d="M256 448c99.2275 0 179.641 -80.4463 179.673 -179.641c0 -7.46777 -0.609375 -14.8076 -1.50586 -22.0508c-15 -140.378 -163.937 -302.424 -163.937 -302.424c-2.69141 -2.91602 -5.28809 -4.87012 -7.78809 -6.2168l-0.12793 -0.0644531l-5.03223 -1.60254
l-5.03223 1.60254l-0.128906 0.0644531c-2.5 1.34473 -5.0957 3.2041 -7.78809 6.2168c0 0 -151.115 161.757 -166.468 302.104c-0.928711 7.33887 -1.53809 14.7422 -1.53809 22.3389c0 99.2256 80.4453 179.672 179.673 179.672zM256 152.755
c63.7148 0 115.54 51.8564 115.54 115.572c0 63.7148 -51.8252 115.571 -115.54 115.571s-115.572 -51.8564 -115.572 -115.571c0 -63.7158 51.8564 -115.572 115.572 -115.572z" />
    <glyph glyph-name="uniF10D" unicode="&#xf10d;" 
d="M442.223 171.462c13.2109 0 23.9238 -10.7109 23.9219 -23.9229c0 -13.2061 -10.7109 -23.9053 -23.9219 -23.9053h-372.446c-13.2119 0 -23.9229 10.6992 -23.9229 23.9053c0 13.2119 10.7109 23.9229 23.9229 23.9229h372.446zM106.999 43.6172
c9.9209 0 17.9453 -8.02832 17.9453 -17.9268v-5.98438c0 -9.90918 -8.02246 -17.9385 -17.9453 -17.9385c-9.91113 0 -17.9326 8.02734 -17.9326 17.9385v5.98438c0 9.89844 8.02148 17.9268 17.9326 17.9268zM106.999 109.396c9.9209 0 17.9453 -8.04102 17.9453 -17.9404
v-5.97656c0 -9.91699 -8.02246 -17.9453 -17.9453 -17.9453c-9.91113 0 -17.9326 8.02832 -17.9326 17.9453v5.97656c0 9.90039 8.02148 17.9404 17.9326 17.9404zM106.999 -22.1562c9.9209 0 17.9453 -8.02637 17.9453 -17.9268v-5.97949
c0 -9.91602 -8.02246 -17.9375 -17.9453 -17.9375c-9.91113 0 -17.9326 8.02148 -17.9326 17.9375v5.97949c0 9.90039 8.02148 17.9268 17.9326 17.9268zM181.498 43.6172c9.91113 0 17.9453 -8.02832 17.9453 -17.9268v-5.98438
c0 -9.90918 -8.03418 -17.9385 -17.9453 -17.9385s-17.9453 8.02734 -17.9453 17.9385v5.98438c0 9.89844 8.03418 17.9268 17.9453 17.9268zM181.498 -22.1562c9.91113 0 17.9453 -8.02637 17.9453 -17.9268v-5.97949c0 -9.91602 -8.03418 -17.9375 -17.9453 -17.9375
s-17.9453 8.02148 -17.9453 17.9375v5.97949c0 9.90039 8.03418 17.9268 17.9453 17.9268zM181.498 109.396c9.91113 0 17.9453 -8.04102 17.9453 -17.9404v-5.97656c0 -9.91699 -8.03418 -17.9453 -17.9453 -17.9453s-17.9453 8.02832 -17.9453 17.9453v5.97656
c0 9.90039 8.03418 17.9404 17.9453 17.9404zM255.999 -22.1562c9.91113 0 17.9326 -8.02637 17.9326 -17.9268v-5.97949c0 -9.91602 -8.02148 -17.9375 -17.9326 -17.9375s-17.9326 8.02148 -17.9326 17.9375v5.97949c0 9.90039 8.02148 17.9268 17.9326 17.9268z
M255.999 43.6172c9.91113 0 17.9326 -8.02832 17.9326 -17.9268v-5.98438c0 -9.90918 -8.02148 -17.9385 -17.9326 -17.9385s-17.9326 8.02734 -17.9326 17.9385v5.98438c0 9.89844 8.02148 17.9268 17.9326 17.9268zM255.999 109.396
c9.91113 0 17.9326 -8.04102 17.9326 -17.9404v-5.97656c0 -9.91699 -8.02148 -17.9453 -17.9326 -17.9453s-17.9326 8.02832 -17.9326 17.9453v5.97656c0 9.90039 8.02148 17.9404 17.9326 17.9404zM330.5 109.396c9.91113 0 17.9434 -8.04102 17.9453 -17.9404v-5.97656
c0 -9.91699 -8.03418 -17.9453 -17.9453 -17.9453s-17.9453 8.02832 -17.9453 17.9453v5.97656c0 9.90039 8.03418 17.9404 17.9453 17.9404zM330.5 -22.1562c9.91113 0 17.9434 -8.02637 17.9453 -17.9268v-5.97949c0 -9.91602 -8.03418 -17.9375 -17.9453 -17.9375
s-17.9453 8.02148 -17.9453 17.9375v5.97949c0 9.90039 8.03418 17.9268 17.9453 17.9268zM330.5 43.6172c9.91113 0 17.9434 -8.02832 17.9453 -17.9268v-5.98438c0 -9.90918 -8.03418 -17.9385 -17.9453 -17.9385s-17.9453 8.02734 -17.9453 17.9385v5.98438
c0 9.89844 8.03418 17.9268 17.9453 17.9268zM404.999 43.6172c9.91309 0 17.9346 -8.02832 17.9326 -17.9268v-5.98438c0 -9.90918 -8.02148 -17.9385 -17.9326 -17.9385c-9.92188 0 -17.9453 8.02734 -17.9453 17.9385v5.98438c0 9.89844 8.02344 17.9268 17.9453 17.9268
zM404.999 -22.1562c9.91309 0 17.9346 -8.02637 17.9326 -17.9268v-5.97949c0 -9.91602 -8.02148 -17.9375 -17.9326 -17.9375c-9.92188 0 -17.9453 8.02148 -17.9453 17.9375v5.97949c0 9.90039 8.02344 17.9268 17.9453 17.9268zM404.999 109.396
c9.91309 0 17.9346 -8.04102 17.9326 -17.9404v-5.97656c0 -9.91699 -8.02148 -17.9453 -17.9326 -17.9453c-9.92188 0 -17.9453 8.02832 -17.9453 17.9453v5.97656c0 9.90039 8.02344 17.9404 17.9453 17.9404zM106.52 191.672c-6.59863 0 -11.9658 5.35059 -11.9658 11.96
c0 83.2012 63.29 151.874 144.268 160.484c5.71094 47.1777 45.9111 83.8838 94.623 83.8838h45.5c9.90039 0 17.9453 -8.02832 17.9453 -17.9453c0 -9.89844 -8.04492 -17.9375 -17.9453 -17.9375h-45.5c-28.9795 0 -53.1113 -20.8271 -58.3789 -48.2881
c80.0449 -9.47852 142.378 -77.6504 142.378 -160.196c0 -6.61035 -5.36621 -11.9609 -11.9668 -11.9609h-298.957z" />
    <glyph glyph-name="uniF106" unicode="&#xf106;" 
d="M343.062 378.498c23.2822 -5.21094 41.2637 -23.1514 43.54 -25.5059c4.94824 -5.11426 4.8125 -13.2715 -0.301758 -18.2197c-5.1084 -4.94141 -13.252 -4.8125 -18.2021 0.28125c-3.80859 3.89551 -13.875 12.3154 -25.0361 16.5508v-52.2354
c22.8857 -5.59375 39.9268 -26.29 39.9268 -50.9072c0 -24.6191 -17.041 -45.3184 -39.9268 -50.9141v-8.37793c0 -7.11719 -5.76758 -12.8857 -12.8857 -12.8857s-12.8857 5.76855 -12.8857 12.8857v8.8418c-23.0977 6.60254 -41.7051 27.7588 -44.0928 30.5645
c-4.61133 5.41895 -3.95898 13.5527 1.45996 18.1641s13.5527 3.95898 18.1641 -1.45996c3.66992 -4.28027 13.7676 -14.1631 24.4688 -19.6377v51.1934c-22.3848 5.93457 -38.9385 26.3984 -38.9385 50.6709c0 24.2744 16.5537 44.7422 38.9385 50.6768v8.62988
c0 7.11816 5.76758 12.8857 12.8857 12.8857s12.8857 -5.76758 12.8857 -12.8857v-8.31543zM304.124 327.506c0 -9.79395 5.30566 -18.3467 13.167 -22.9756v45.957c-7.86133 -4.62988 -13.167 -13.1865 -13.167 -22.9814zM357.219 248.458
c0 10.1924 -5.74707 19.0596 -14.1562 23.5352v-47.0742c8.40918 4.47559 14.1562 13.3428 14.1562 23.5391zM439.215 447.179c40.1328 0 72.7852 -32.6523 72.7852 -72.7852v-175.436c0 -40.1289 -32.6523 -72.7783 -72.7852 -72.7783h-21.3447v-68.4111
c0 -4.83691 -2.70605 -9.26367 -7.00977 -11.4688c-1.85156 -0.948242 -3.86719 -1.41699 -5.87402 -1.41699c-2.6543 0 -5.29492 0.819336 -7.53027 2.42773l-23.79 17.124c-10.7197 -27.1406 -37.3242 -46.3184 -67.7158 -46.3184h-81.835l-109.571 -78.8672
c-2.23535 -1.6084 -4.87598 -2.42773 -7.53027 -2.42773c-2.00684 0 -4.02051 0.467773 -5.87402 1.41699c-4.30469 2.20508 -7.00977 6.63379 -7.00977 11.4688v68.4092h-21.3457c-40.1338 0 -72.7842 32.6562 -72.7842 72.7939v175.424
c0 40.1309 32.6504 72.7783 72.7842 72.7803h60.4854v35.2793c0 40.1328 32.6484 72.7852 72.7803 72.7852h233.165zM305.95 43.8877c21.9541 0 40.8564 15.4941 45.7549 36.3555l-63.8223 45.9385h-81.835c-40.1309 0 -72.7803 32.6484 -72.7803 72.7783v114.381h-60.4834
c-25.9229 0 -47.0127 -21.0859 -47.0127 -47.0068v-175.422c0 -25.9297 21.0898 -47.0244 47.0127 -47.0244h34.2305c7.11816 0 12.8857 -5.76758 12.8857 -12.8857v-56.1436l92.5303 66.6016c2.19434 1.5791 4.82812 2.42773 7.52832 2.42773h85.9912zM486.229 198.96
v175.434c0 25.9238 -21.0898 47.0137 -47.0137 47.0137h-233.165c-25.9209 0 -47.0088 -21.0898 -47.0088 -47.0137v-175.434c0 -25.9209 21.0879 -47.0068 47.0088 -47.0068h85.9902c2.70117 0 5.33691 -0.848633 7.5293 -2.42773l92.5293 -66.6035v56.1455
c0 7.11816 5.76855 12.8857 12.8857 12.8857h34.2305c25.9238 0 47.0137 21.0859 47.0137 47.0068z" />
    <glyph glyph-name="uniF10B" unicode="&#xf10b;" 
d="M256 448c141.391 0 256 -114.609 256 -256s-114.609 -256 -256 -256s-256 114.609 -256 256s114.609 256 256 256zM256 -24c119.297 0 216 96.7031 216 216s-96.7031 216 -216 216s-216 -96.7031 -216 -216s96.7031 -216 216 -216zM239.078 262.508
c-25.7969 -17.8516 -48.3281 -51.8193 -51.5781 -78.9932c0.84375 0 6.46875 1.68848 10.5 1.68848c22.5781 0 39.4688 -18.6562 39.4688 -43.2812c0 -25.5469 -19.3281 -45.9219 -43.5 -45.9219c-26.625 0 -49.9688 22.9531 -49.9688 64.5625
c0 51.8281 28.2188 100.258 65.25 127.438zM326.938 185.203c22.5781 0 39.4375 -18.6562 39.4395 -43.2812c0 -25.5469 -19.3281 -45.9219 -43.4688 -45.9219c-26.625 0 -49.9531 22.9531 -49.9531 64.5625c0 51.8281 28.2031 100.258 65.2324 127.438l29.8125 -25.4941
c-25.7812 -17.8496 -48.3594 -51.8203 -51.5625 -78.9912c1.57812 0 7.26758 1.68848 10.5 1.68848z" />
    <glyph glyph-name="uniF104" unicode="&#xf104;" 
d="M406.393 412.613c19.208 0 34.834 -15.626 34.834 -34.834v-406.945c0 -19.207 -15.626 -34.834 -34.834 -34.834h-300.786c-19.207 0 -34.833 15.627 -34.833 34.834v406.945c0 19.208 15.626 34.834 34.833 34.834h63.8447
c3.46973 10.2734 13.1924 17.6934 24.6221 17.6934h27c8.19434 11.0195 21.1758 17.6934 34.9268 17.6934s26.7324 -6.67383 34.9268 -17.6934h27c11.4297 0 21.1523 -7.41992 24.6221 -17.6934h63.8438zM169.451 360.64h-46.7041v-372.666h266.506v372.666h-46.7041
c-3.46973 -10.2734 -13.1924 -17.6934 -24.6221 -17.6934h-123.854c-11.4297 0 -21.1523 7.41992 -24.6221 17.6934zM194.073 413.719c-5.18262 0 -9.39941 -4.21582 -9.40039 -9.39941v-35.3428l0.00195312 -0.0439453l-0.000976562 -0.0205078
c0.0117188 -5.17285 4.22363 -9.37891 9.39844 -9.37891h123.854c5.17969 0 9.39355 4.21094 9.39941 9.38867v0.0107422l0.000976562 0.0214844v35.3652c0 5.18359 -4.2168 9.39941 -9.39941 9.39941h-31.4492c-2.95117 0 -5.68164 1.57031 -7.16797 4.12305
c-4.94531 8.49707 -13.6592 13.5703 -23.3096 13.5703s-18.3643 -5.07324 -23.3105 -13.5703c-1.48535 -2.55273 -4.21582 -4.12305 -7.16797 -4.12305h-31.4482zM424.64 -29.166v406.945c0 10.0615 -8.18555 18.2471 -18.2471 18.2471h-62.4785v-18.7998h53.6328
c4.58105 0 8.29297 -3.71191 8.29297 -8.29395v-389.252c0 -4.58203 -3.71191 -8.29395 -8.29297 -8.29395h-283.094c-4.58105 0 -8.29297 3.71191 -8.29297 8.29395v389.252c0 4.58203 3.71191 8.29395 8.29297 8.29395h53.6328v18.7998h-62.4795
c-10.0605 0 -18.2461 -8.18555 -18.2461 -18.2471v-406.945c0 -10.0615 8.18555 -18.2461 18.2461 -18.2461h300.786c10.0615 0 18.2471 8.18457 18.2471 18.2461zM256 378.333c-4.58105 0 -8.29395 3.71191 -8.29395 8.29297v17.6934
c0 4.58203 3.71289 8.29395 8.29395 8.29395s8.29395 -3.71191 8.29395 -8.29395v-17.6934c0 -4.58105 -3.71289 -8.29297 -8.29395 -8.29297zM264.847 263.326c-4.58105 0 -8.29395 3.71191 -8.29395 8.29395c0 4.58105 3.71289 8.29395 8.29395 8.29395h53.0801
c4.58105 0 8.29395 -3.71289 8.29395 -8.29395c0 -4.58203 -3.71289 -8.29395 -8.29395 -8.29395h-53.0801zM264.847 227.939c-4.58105 0 -8.29395 3.71191 -8.29395 8.29395c0 4.58105 3.71289 8.29395 8.29395 8.29395h88.4668
c4.58105 0 8.29297 -3.71289 8.29297 -8.29395c0 -4.58203 -3.71191 -8.29395 -8.29297 -8.29395h-88.4668zM179.361 230.368l-26.5391 26.54c-3.23828 3.23828 -3.23828 8.48926 0 11.7295c3.23926 3.2373 8.49023 3.2373 11.7295 0l20.6748 -20.6758l38.3691 38.3691
c3.23926 3.2373 8.48926 3.2373 11.7295 0c3.23926 -3.23926 3.23926 -8.49023 0 -11.7295l-44.2334 -44.2334c-1.62012 -1.61914 -3.74316 -2.42871 -5.86523 -2.42871s-4.24512 0.80957 -5.86523 2.42871zM264.847 174.859c-4.58105 0 -8.29395 3.71289 -8.29395 8.29395
s3.71289 8.29395 8.29395 8.29395h53.0801c4.58105 0 8.29395 -3.71289 8.29395 -8.29395s-3.71289 -8.29395 -8.29395 -8.29395h-53.0801zM264.847 139.473c-4.58105 0 -8.29395 3.71289 -8.29395 8.29395c0 4.58203 3.71289 8.29395 8.29395 8.29395h88.4668
c4.58105 0 8.29297 -3.71191 8.29297 -8.29395c0 -4.58105 -3.71191 -8.29395 -8.29297 -8.29395h-88.4668zM179.361 141.901l-26.5391 26.54c-3.23828 3.23926 -3.23828 8.48926 0 11.7295c3.23926 3.23828 8.49023 3.23828 11.7295 0l20.6748 -20.6758l38.3691 38.3691
c3.23926 3.23828 8.48926 3.23828 11.7295 0c3.23926 -3.23926 3.23926 -8.48926 0 -11.7295l-44.2334 -44.2334c-1.62012 -1.61914 -3.74316 -2.42871 -5.86523 -2.42871s-4.24512 0.80957 -5.86523 2.42871zM264.847 86.3936
c-4.58105 0 -8.29395 3.71191 -8.29395 8.29297c0 4.58203 3.71289 8.29395 8.29395 8.29395h53.0801c4.58105 0 8.29395 -3.71191 8.29395 -8.29395c0 -4.58105 -3.71289 -8.29297 -8.29395 -8.29297h-53.0801zM264.847 51.0068
c-4.58105 0 -8.29395 3.71191 -8.29395 8.29297c0 4.58203 3.71289 8.29395 8.29395 8.29395h88.4668c4.58105 0 8.29297 -3.71191 8.29297 -8.29395c0 -4.58105 -3.71191 -8.29297 -8.29297 -8.29297h-88.4668zM179.361 53.4346l-26.5391 26.54
c-3.23828 3.23926 -3.23828 8.48926 0 11.7295c3.23926 3.23828 8.49023 3.23828 11.7295 0l20.6748 -20.6758l38.3691 38.3691c3.23926 3.23828 8.48926 3.23828 11.7295 0c3.23926 -3.23828 3.23926 -8.48926 0 -11.7295l-44.2334 -44.2334
c-1.62012 -1.61816 -3.74316 -2.42773 -5.86523 -2.42773s-4.24512 0.80957 -5.86523 2.42773z" />
    <glyph glyph-name="uniF107" unicode="&#xf107;" 
d="M322.787 394.342v-131.139l186.39 -265.534c1.76758 -2.18945 2.8252 -4.97461 2.8252 -8.00684c0 -7.0459 -5.70898 -12.7559 -12.7559 -12.7559c-0.00585938 -0.000976562 -0.0195312 -0.000976562 -0.0332031 0h-486.456
c-4.74805 0 -9.10547 2.63672 -11.3047 6.84766c-2.2002 4.20898 -1.88086 9.29004 0.830078 13.1885l121.612 174.898c2.15723 3.10254 5.5791 5.08887 9.34277 5.42383c3.74316 0.330078 7.48047 -1.01562 10.1523 -3.6875l31.5176 -31.5303l122.369 122.408v36.0312
h-122.369c-7.0459 0 -12.7549 5.70898 -12.7549 12.7549v81.1006c0 7.0459 5.70898 12.7549 12.7549 12.7549h135.124c7.0459 0 12.7559 -5.70898 12.7559 -12.7549zM187.662 325.996h109.614v55.5908h-109.614v-55.5908zM37.1602 2.41504l437.515 -0.00195312
l-166.357 237.003l-124.39 -124.431c-2.39355 -2.3916 -5.6377 -3.73633 -9.02051 -3.73633c-3.38477 0 -6.62988 1.34473 -9.02246 3.73633l-29.7529 29.7666z" />
    <glyph glyph-name="uniF108" unicode="&#xf108;" 
d="M332.129 275.335c0 -45.5645 154.68 -47.9629 154.68 -157.076c0 -58.1543 -30.5762 -103.719 -93.5273 -118.707v-34.3945c0 -16.1016 -13.0547 -29.1562 -29.1562 -29.1562h-8.83496c-16.1025 0 -29.1562 13.0547 -29.1562 29.1562v30.7969
c-25.7607 3.16406 -56.292 12.1201 -82.6035 27.8945c-14.0371 8.41504 -18.2754 26.8223 -9.47168 40.6211l13.7627 21.5742c8.39062 13.1523 25.6855 17.4287 39.1621 9.56641c21.8535 -12.749 40.6943 -18.1201 59.5361 -18.1201
c29.9766 0 41.9668 10.1914 41.9668 33.5732c0 47.9639 -154.68 54.5566 -154.68 159.476c0 60.5518 34.1738 102.52 92.3281 115.109v33.1953c0 16.1025 13.0537 29.1562 29.1562 29.1562h8.83398c16.1016 0 29.1562 -13.0537 29.1562 -29.1562v-31.9961
c26.5713 -4.21777 48.6934 -14.9639 67.8252 -29.7334c13.2158 -10.2021 15.0283 -29.4785 4.08691 -42.0908l-14.3477 -16.543c-9.49219 -10.9443 -25.5986 -13.2793 -37.7754 -5.42773c-13.9141 8.97168 -27.4023 13.458 -42.5713 13.458
c-25.7793 0 -38.3701 -7.19434 -38.3701 -31.1758zM36.877 153.114c-10.3896 0 -15.5938 12.5625 -8.24707 19.9092l86.9648 86.9648c4.55469 4.55469 11.9385 4.55469 16.4932 0l86.9658 -86.9629c7.34668 -7.34863 2.14355 -19.9102 -8.24707 -19.9102h-23.3184v-116.145
s85.2656 -100.971 85.2656 -100.971h-42.7588h-21.4121h-47.417c-55.7637 0 -100.97 45.2061 -100.97 100.971v0v116.144h-23.3193z" />
    <glyph glyph-name="uniF102" unicode="&#xf102;" 
d="M501.368 350.156c5.84668 -7.33594 10.6299 -21.0137 10.6299 -30.3955l0.000976562 -312.01c0 -19.2373 -15.5947 -34.832 -34.832 -34.832h-227.747l27.1172 7.05371c12.1836 3.1709 22.4092 10.8916 28.7842 21.75c6.36816 10.8574 8.13672 23.5459 4.9668 35.7295
l-60.7598 233.523c-5.40234 20.7705 -24.1455 35.2744 -45.5879 35.2744c-4.00098 0 -7.99316 -0.509766 -11.8779 -1.52344l-31.0039 -8.06348c-5.39551 3.10547 -11.5889 4.90723 -18.1426 4.90723c-2.13672 0 -4.26465 -0.191406 -6.37402 -0.558594
c-7.08301 10.667 -19.1777 17.457 -32.5264 17.457c-3.3125 0 -6.62598 -0.428711 -10.2451 -1.37402c-10.0957 -2.62598 -18.5654 -9.02051 -23.8447 -18.0146c-3.04785 -5.19043 -4.83008 -10.8916 -5.26562 -16.7695
c-7.79199 -2.68555 -14.29 -7.93457 -18.7363 -14.9287v51.4355c0 10.3252 4.78516 24.0029 10.6318 31.3389l55.9707 70.2217c5.28809 6.63281 13.3076 10.4971 21.79 10.4971h289.289c8.4834 0 16.5039 -3.86426 21.79 -10.498zM74.8467 350.75h408.229l-18.5342 23.2559
h-134.162l-6.9668 20.5176h124.773l-13.6846 17.1689c-2.6582 3.33594 -6.62891 5.24902 -10.8955 5.24902h-289.289c-4.26465 0 -8.23633 -1.91309 -10.8945 -5.24902l-13.6846 -17.1689h122.59l-12.4795 -20.5176h-126.466zM80.5 264.95
c4.17773 1.08691 6.68359 5.35449 5.59863 9.53418l-0.0673828 0.253906c-2.52246 9.70117 3.29492 19.6113 12.9961 22.1348l0.405273 0.105469c9.70215 2.52441 19.6113 -3.29395 22.1348 -12.9951l0.0673828 -0.254883
c1.08691 -4.17676 5.35547 -6.68262 9.53223 -5.5957l7.81836 2.03418c8.32617 2.16602 16.833 -2.8291 19 -11.1553l0.0791016 -0.304688c2.16602 -8.32812 -2.82812 -16.835 -11.1553 -19.001l-66.3018 -17.249c-8.32812 -2.16602 -16.834 2.82812 -19.001 11.1553
l-0.0800781 0.304688c-2.16504 8.32617 2.8291 16.833 11.1553 19zM101.871 286.77c-4.20605 -1.09277 -6.72852 -5.38965 -5.63477 -9.5957c1.09473 -4.2041 5.39062 -6.72656 9.5957 -5.63379c4.20703 1.09375 6.72852 5.39062 5.63477 9.59668
c-1.09375 4.2041 -5.39062 6.72754 -9.5957 5.63281zM199.584 46.5947c0.729492 -2.80371 -0.952148 -5.66797 -3.75586 -6.39746l-96.459 -25.0928c-2.80273 -0.729492 -5.66797 0.953125 -6.39746 3.75684l-1.32031 5.0752
c-0.729492 2.80469 0.952148 5.66895 3.75586 6.39746l96.458 25.0928c2.80469 0.729492 5.66797 -0.953125 6.39746 -3.75488zM211.349 147.221l1.32031 -5.07617c0.729492 -2.80469 -0.952148 -5.66797 -3.75586 -6.39648l-131.995 -34.3398
c-2.80469 -0.729492 -5.66797 0.953125 -6.39746 3.75586l-1.32129 5.07715c-0.729492 2.80371 0.952148 5.66797 3.75684 6.39648l131.995 34.3379c2.80371 0.730469 5.66797 -0.950195 6.39746 -3.75488zM197.026 181.438l-131.995 -34.3389
c-2.80469 -0.728516 -5.66797 0.953125 -6.39746 3.75684l-1.32129 5.07617c-0.729492 2.80469 0.952148 5.66699 3.75684 6.39648l131.995 34.3389c2.80371 0.729492 5.66797 -0.952148 6.39746 -3.75586l1.32129 -5.07715
c0.729492 -2.80273 -0.952148 -5.66699 -3.75684 -6.39648zM194.095 88.5293l-106.611 -27.7344c-2.80469 -0.729492 -5.66797 0.952148 -6.39746 3.75586l-1.32129 5.07617c-0.729492 2.80469 0.952148 5.66797 3.75586 6.39746l106.611 27.7334
c2.80469 0.730469 5.66797 -0.952148 6.39746 -3.75488l1.32129 -5.07715c0.730469 -2.80273 -0.951172 -5.66797 -3.75586 -6.39648zM290.057 32.1885c3.64746 -14.0186 -4.76074 -28.3398 -18.7783 -31.9863l-177.688 -46.2246
c-14.0186 -3.64746 -28.3398 4.76074 -31.9873 18.7803l-60.752 233.53c-3.64648 14.0186 4.76074 28.3398 18.7803 31.9863l30.9893 8.0625c0.129883 -2.42969 0.585938 -4.89746 1.42969 -7.35156c4.47656 -13.0322 18.835 -19.8984 32.1709 -16.4297l65.3271 16.9951
c13.9141 3.62012 22.2881 17.8828 18.5889 32.1016c-0.439453 1.68555 -1.0459 3.28125 -1.77832 4.79297l30.957 8.05371c14.0195 3.64746 28.3408 -4.76074 31.9873 -18.7793zM86.9873 -20.6387l177.687 46.2246l-52.8291 203.068l-177.686 -46.2246z" />
    <glyph glyph-name="uniF101" unicode="&#xf101;" 
d="M256 118.857l63.3418 55.4424l180.992 -155.246c-6.54688 -6.10742 -15.3965 -9.91113 -25.1611 -9.91113h-438.346c-9.80078 0 -18.6875 3.80371 -25.2705 9.91113l181.102 155.246zM500.443 364.946l-244.443 -209.518l-244.37 209.444
c6.58301 6.18066 15.4326 9.98438 25.1973 9.98438h438.346c9.83789 0 18.6875 -3.76758 25.2705 -9.91113zM0 342.747l176.75 -153.636l-176.75 -150.199v303.835zM335.25 189.111l176.75 153.746v-303.945z" />
    <glyph glyph-name="uniF109" unicode="&#xf109;" 
d="M196.074 227.804c40.0957 0 72.7148 -32.666 72.7109 -72.8184c0 -26.7715 -21.0967 -48.5127 -23.502 -50.9023c-3.96387 -3.94141 -9.18066 -12.6582 -10.8672 -18.1113l-5.8125 -23.8203c-1.41895 -5.82031 -6.63477 -9.91406 -12.624 -9.91406h-39.8154
c-5.99121 0 -11.2061 4.09766 -12.624 9.91699l-5.80762 23.8125c-1.69238 5.46777 -6.91113 14.1816 -10.8711 18.1162c-2.40234 2.38965 -23.5049 24.1289 -23.5049 50.9023c0 40.1504 32.6211 72.8184 72.7178 72.8184zM226.961 122.512
c4.38477 4.41797 15.8379 18.9209 15.8379 32.4717c0 25.8223 -20.9619 46.8291 -46.7246 46.8291c-25.7666 0 -46.7275 -21.0068 -46.7275 -46.8291c0 -13.5527 11.4521 -28.0537 15.8652 -32.4971c7.125 -7.08203 14.6709 -19.7441 17.5283 -29.4258
c0.0585938 -0.199219 0.114258 -0.398438 0.161133 -0.599609l3.47168 -14.2354h19.4004l3.47559 14.2383c0.0488281 0.196289 0.100586 0.391602 0.158203 0.585938c2.84473 9.67188 10.3906 22.3389 17.5537 29.4619zM367.605 448
c7.17871 0 12.9951 -5.81641 12.9951 -12.9951v-486.01c0 -7.17871 -5.81641 -12.9951 -12.9951 -12.9951h-343.065c-7.17871 0 -12.9951 5.81641 -12.9951 12.9951v486.01c0 7.17871 5.81641 12.9951 12.9951 12.9951h343.065zM354.61 -38.0098v460.02h-317.076v-460.02
h317.076zM81.7168 295.959c-7.17578 0 -12.9941 5.81738 -12.9941 12.9951v68.873c0 7.17871 5.81641 12.9951 12.9941 12.9951h228.711c7.17871 0 12.9951 -5.81641 12.9951 -12.9951v-68.873c0 -7.17773 -5.81641 -12.9951 -12.9951 -12.9951h-228.711zM94.7119 364.832
v-42.8828h202.721v42.8828h-202.721zM210.367 40.3926c7.17773 0 12.9951 -5.81641 12.9951 -12.9951s-5.81738 -12.9951 -12.9951 -12.9951h-28.5889c-7.17871 0 -12.9951 5.81641 -12.9951 12.9951s5.81641 12.9951 12.9951 12.9951h28.5889zM196.53 6.60547
c7.17676 0 12.9951 -5.81641 12.9951 -12.9941c0 -7.17871 -5.81738 -12.9951 -12.9951 -12.9951h-0.913086c-7.17871 0 -12.9951 5.81641 -12.9951 12.9951c0 7.17773 5.81641 12.9941 12.9951 12.9941h0.913086zM196.53 243.113h-0.913086
c-7.17871 0 -12.9951 5.81641 -12.9951 12.9951s5.81641 12.9951 12.9951 12.9951h0.913086c7.17773 0 12.9951 -5.81641 12.9951 -12.9951s-5.81738 -12.9951 -12.9951 -12.9951zM131.556 233.584c0 -7.17871 -5.81836 -12.9951 -12.9951 -12.9951h-0.913086
c-7.17676 0 -12.9951 5.81641 -12.9951 12.9951c0 7.17773 5.81641 12.9951 12.9951 12.9951h0.913086c7.17871 0 12.9951 -5.81738 12.9951 -12.9951zM274.5 246.579c7.17578 0 12.9941 -5.81738 12.9941 -12.9951c0 -7.17871 -5.81641 -12.9951 -12.9941 -12.9951
h-0.913086c-7.17871 0 -12.9951 5.81641 -12.9951 12.9951c0 7.17773 5.81641 12.9951 12.9951 12.9951h0.913086zM303.955 183.337c7.17676 0 12.9941 -5.81641 12.9941 -12.9951s-5.81641 -12.9951 -12.9941 -12.9951h-0.913086
c-7.17871 0 -12.9951 5.81641 -12.9951 12.9951s5.81641 12.9951 12.9951 12.9951h0.913086zM94.3037 183.337c7.17578 0 12.9941 -5.81641 12.9941 -12.9951s-5.81641 -12.9951 -12.9941 -12.9951h-0.913086c-7.17676 0 -12.9951 5.81641 -12.9951 12.9951
s5.81836 12.9951 12.9951 12.9951h0.913086zM411.79 57.3867v307.879c0 7.17871 5.81641 12.9951 12.9951 12.9951h62.6758c7.17773 0 12.9941 -5.81641 12.9941 -12.9951v-307.879c0 -2.01758 -0.469727 -4.00781 -1.37207 -5.81348l-31.3389 -62.6748
c-2.2002 -4.40332 -6.7002 -7.18359 -11.6221 -7.18359c-4.92285 0 -9.4209 2.78223 -11.623 7.18359l-31.3369 62.6748c-0.902344 1.80566 -1.37207 3.7959 -1.37207 5.81348zM437.78 70.3818h36.6855v240.105h-36.6855v-240.105zM474.466 352.271h-36.6855v-15.793
h36.6855v15.793zM456.122 23.7676l10.3105 20.6221h-20.6221z" />
    <glyph glyph-name="uniF10E" unicode="&#xf10e;" 
d="M389.257 109.302c20.3496 -20.2432 40.6992 -40.4863 60.9424 -60.8359c16.9404 -17.0469 16.834 -37.9287 -0.212891 -55.1885c-11.5068 -11.6133 -23.7598 -22.6934 -34.627 -34.8398c-15.874 -17.792 -35.6914 -23.5459 -58.4912 -22.2666
c-33.1348 1.81055 -63.6064 12.7842 -93.0117 27.0615c-65.3105 31.749 -121.139 75.751 -167.911 131.366c-34.626 41.126 -63.1797 85.9805 -81.9307 136.481c-9.16309 24.3975 -15.6621 49.4355 -13.6377 75.9648c1.27832 16.3008 7.35156 30.2578 19.3906 41.6572
c12.998 12.3594 25.251 25.251 38.0361 37.8232c16.6201 16.4072 37.5029 16.4072 54.2295 0.106445c10.335 -10.1221 20.4561 -20.4561 30.6846 -30.6846c9.9082 -10.0146 19.8174 -19.8164 29.7256 -29.832c17.4727 -17.5791 17.4727 -38.0352 0.106445 -55.5078
c-12.4658 -12.5723 -24.8242 -25.1445 -37.5029 -37.3965c-3.30273 -3.30273 -3.62305 -5.9668 -1.91797 -10.0156c8.41699 -20.0293 20.4561 -37.8223 33.9873 -54.4424c27.2744 -33.4551 58.0654 -63.1797 94.8223 -86.2998
c7.88477 -4.90137 16.6211 -8.52344 24.8242 -12.998c4.15527 -2.34375 7.03223 -1.59863 10.4414 1.91797c12.4658 12.7852 25.1445 25.3564 37.8223 37.9287c16.6211 16.5137 37.5029 16.5137 54.2305 0zM368.907 194.216
c-4.79395 27.9141 -17.8994 53.2715 -37.9287 73.3018c-21.2021 21.2012 -48.0508 34.5195 -77.5635 38.6748l5.54004 39.5273c38.1426 -5.32715 72.7686 -22.5869 100.15 -49.9688c25.8896 -25.9961 42.9365 -58.7051 49.1162 -94.8223zM430.382 365.11
c43.0439 -43.1504 71.2773 -97.4863 81.6123 -157.363l-39.3145 -6.71191c-8.84277 51.6729 -33.2412 98.6582 -70.4248 135.841c-39.207 39.1016 -88.8564 63.9258 -143.619 71.5967l5.54004 39.5273c63.3926 -8.84277 120.819 -37.5029 166.206 -82.8896z" />
    <glyph glyph-name="uniF10C" unicode="&#xf10c;" 
d="M501.798 19.8574c6.5791 -6.5791 10.2021 -15.3262 10.1992 -24.6318c0 -9.30469 -3.62305 -18.0518 -10.2031 -24.6309l-24.3936 -24.3945c-6.79004 -6.79102 -15.7109 -10.1855 -24.6309 -10.1855s-17.8389 3.39453 -24.6299 10.1855l-165.146 165.147
c-4.62109 4.62207 -7.77734 10.3154 -9.25 16.5186l-80.8945 -80.8955c-0.0957031 -0.09375 -0.144531 -0.389648 -0.0488281 -0.75c7.96484 -30.1885 -0.765625 -62.6182 -22.7822 -84.6367c-15.083 -15.0811 -35.1006 -24.1533 -56.3672 -25.5469
c-0.392578 -0.0234375 -0.786133 -0.0371094 -1.1748 -0.0371094c-6.80762 -0.000976562 -12.8994 3.88867 -15.7354 10.1494c-2.96387 6.54199 -1.58984 14.0586 3.5 19.1484l27.8945 27.8945l-10.7432 40.0938l-40.0938 10.7451l-27.8975 -27.8975
c-5.08887 -5.08887 -12.6016 -6.46289 -19.1416 -3.50098c-6.62305 3.00098 -10.5928 9.64746 -10.1152 16.9316c1.41211 21.4932 10.6475 41.665 26.0049 56.8047c21.625 21.3154 53.792 29.7793 83.9541 22.0889
c0.355469 -0.0917969 0.646484 -0.0400391 0.740234 0.0537109l108.458 108.458l-161.94 161.94c-3.62305 -1.79395 -7.57422 -2.71191 -11.5332 -2.71191c-6.65527 0 -13.3086 2.53223 -18.376 7.59863c-0.385742 0.386719 -0.733398 0.810547 -1.03613 1.26465
l-25.0215 37.5332c-2.19434 3.28906 -1.75977 7.66895 1.03613 10.4639l12.5098 12.5117c2.79688 2.79492 7.17773 3.23047 10.4658 1.03516l37.5322 -25.0205c0.455078 -0.302734 0.87793 -0.650391 1.26465 -1.03711c8.0791 -8.0791 9.69434 -20.1924 4.8877 -29.9092
l161.94 -161.938l108.226 108.225c0.0947266 0.09375 0.143555 0.390625 0.0488281 0.751953c-7.96582 30.1865 0.763672 62.6162 22.7822 84.6348c15.082 15.0811 35.1006 24.1533 56.3662 25.5479c7.26758 0.451172 13.9141 -3.49512 16.9121 -10.1113
c2.96289 -6.54297 1.58984 -14.0586 -3.5 -19.1484l-27.8965 -27.8965l10.7432 -40.0947l40.0957 -10.7432l27.8965 27.8965c5.09082 5.09082 12.6035 6.46289 19.1445 3.5c6.62109 -3.00098 10.5918 -9.64746 10.1123 -16.9297
c-1.41211 -21.4922 -10.6455 -41.667 -26.0029 -56.8047c-21.627 -21.3174 -53.7979 -29.7764 -83.9541 -22.0879c-0.353516 0.0917969 -0.645508 0.0400391 -0.739258 -0.0546875l-81.1465 -81.1455c6.06348 -1.43945 11.8125 -4.51465 16.5332 -9.23438zM39.6895 395.053
c3.68848 -3.18359 9.2832 -3.02637 12.7832 0.473633s3.65723 9.09473 0.473633 12.7842l-31.085 20.7217l-2.89551 -2.89453zM287.389 185.004c0.232422 0.232422 0.473633 0.450195 0.708984 0.675781l0.0126953 0.0126953l-6.68652 6.68555
c-1.77539 1.77637 -4.13574 2.75391 -6.64551 2.75391c-2.1709 0 -4.22754 -0.734375 -5.89355 -2.08008l-13.9355 -13.9355c-1.34668 -1.66699 -2.08105 -3.72363 -2.08105 -5.89551c0 -2.51172 0.977539 -4.87207 2.75391 -6.64844l6.68555 -6.68457
c0.227539 0.241211 0.451172 0.485352 0.6875 0.72168zM350.984 325.192l-108.221 -108.227l13.252 -13.252l107.825 107.745c3.2373 3.23828 8.48926 3.23828 11.7285 0s3.23926 -8.48926 0 -11.7295l-90.2422 -90.2422c2.87988 -1.2793 5.53418 -3.08594 7.83008 -5.38281
l6.68555 -6.68457l89.6943 89.6934c4.30176 4.30176 10.4941 5.94434 16.5674 4.39844c24.5625 -6.26562 50.6982 0.56543 68.2109 17.8281c12.46 12.2803 19.9512 28.6445 21.0957 46.0762c0.0146484 0.225586 0.0361328 0.533203 -0.407227 0.734375
c-0.307617 0.139648 -0.389648 0.0595703 -0.569336 -0.120117l-31.2822 -31.2822c-2.09473 -2.09375 -5.14648 -2.91211 -8.01074 -2.14551l-49.3457 13.2217c-2.86328 0.767578 -5.09766 3.00195 -5.86523 5.86426l-13.2227 49.3457
c-0.767578 2.86328 0.0507812 5.91504 2.14648 8.01172l31.2812 31.2793c0.172852 0.174805 0.261719 0.262695 0.119141 0.576172c-0.198242 0.436523 -0.500977 0.419922 -0.71875 0.402344c-17.248 -1.12891 -33.4854 -8.49023 -45.7207 -20.7236
c-17.8594 -17.8594 -24.9375 -44.1738 -18.4727 -68.6738c1.59082 -6.0293 -0.0791016 -12.4336 -4.3584 -16.7139zM161.121 58.7012l89.4541 89.458l-6.68652 6.68555c-2.29688 2.29688 -4.10254 4.9502 -5.38281 7.83203l-90.2422 -90.2432
c-1.61914 -1.61816 -3.74219 -2.42773 -5.86426 -2.42773s-4.24512 0.80957 -5.86426 2.42773c-3.23926 3.23926 -3.23926 8.49023 0 11.7295l107.745 107.825l-13.252 13.2529l-108.459 -108.459c-4.30078 -4.30273 -10.4932 -5.94629 -16.5684 -4.39746
c-24.5615 6.26562 -50.6992 -0.567383 -68.21 -17.8291c-12.46 -12.2812 -19.9512 -28.6455 -21.0977 -46.0771c-0.0126953 -0.212891 -0.0341797 -0.53418 0.40918 -0.735352c0.308594 -0.139648 0.389648 -0.0566406 0.567383 0.120117l31.2842 31.2832
c1.57617 1.57617 3.69434 2.42871 5.86523 2.42871c0.71582 0 1.43652 -0.09375 2.14648 -0.283203l49.3447 -13.2227c2.86133 -0.767578 5.09668 -3.00293 5.86426 -5.86426l13.2227 -49.3447c0.766602 -2.8623 -0.0517578 -5.91504 -2.14648 -8.01172l-31.2812 -31.2803
c-0.173828 -0.174805 -0.260742 -0.262695 -0.119141 -0.575195c0.199219 -0.4375 0.5 -0.419922 0.717773 -0.402344c17.249 1.12793 33.4863 8.48828 45.7217 20.7227c17.8594 17.8594 24.9375 44.1738 18.4727 68.6748
c-1.59082 6.02832 0.0791016 12.4326 4.3584 16.7129zM490.069 -17.6748c3.44531 3.44629 5.34375 8.02734 5.34375 12.9014s-1.89941 9.45508 -5.34473 12.9014l-165.146 165.146c-3.55566 3.55762 -8.22949 5.33594 -12.9014 5.33594
c-4.51953 0 -9.02832 -1.67969 -12.5381 -5.00684l-25.0957 -25.0947c-3.22266 -3.40332 -5.00586 -7.82422 -5.00586 -12.5303c0 -4.87305 1.89844 -9.45508 5.34473 -12.9004l165.146 -165.147c7.11426 -7.11621 18.6895 -7.11426 25.8037 0zM310.939 148.788
l153.638 -153.639c3.23926 -3.23828 3.23926 -8.48926 0 -11.7295c-1.61816 -1.61816 -3.74219 -2.42773 -5.86426 -2.42773s-4.24512 0.80957 -5.86426 2.42773l-153.637 153.639c-3.23926 3.23926 -3.23926 8.49023 0 11.7295c3.2373 3.23828 8.48926 3.23828 11.7275 0z
" />
    <glyph glyph-name="uniF100" unicode="&#xf100;" 
d="M465.867 193.615c6.99512 0 12.7188 -5.72363 12.7188 -12.7188v-25.4385c0 -6.99512 -5.72168 -12.7178 -12.7188 -12.7178h-76.3145c-6.99512 0 -12.7188 5.72168 -12.7188 12.7178v25.4385c0 6.99512 5.72168 12.7188 12.7188 12.7188v25.4385
c0 6.99512 -5.72266 12.7188 -12.7188 12.7188h-35.5518c-7.96191 -42.2275 -44.9746 -74.1914 -89.5176 -74.1914c-35.0293 0 -65.4023 19.7793 -80.665 48.7529h-86.8086v-50.877c0 -14.0537 -11.3848 -25.4385 -25.4385 -25.4385
c-14.0547 0 -25.4385 11.3848 -25.4385 25.4385v190.789c0 14.0537 11.3838 25.4385 25.4385 25.4385c14.0537 0 25.4385 -11.3848 25.4385 -25.4385v-38.1582h98.3721c10.6201 12.3496 24.459 21.8008 40.2432 27.0664c-6.71582 2.95117 -11.4219 9.64062 -11.4219 17.4512
c0 10.5322 8.54688 19.0791 19.0791 19.0791h6.35938v25.4385h-57.2363c-10.5322 0 -19.0791 8.54688 -19.0791 19.0791s8.54688 19.0791 19.0791 19.0791h57.2363c0 7.02051 4.23633 12.7188 12.7188 12.7188c8.48145 0 12.7188 -5.69824 12.7188 -12.7188h57.2354
c10.5322 0 19.0801 -8.54688 19.0801 -19.0791s-8.54785 -19.0791 -19.0801 -19.0791h-57.2354v-25.4375h6.3584c10.5322 0 19.0801 -8.54688 19.0801 -19.0791c0 -7.16113 -3.99512 -13.3301 -9.83301 -16.5859c22.0176 -6.60156 40.46 -21.3184 52.0088 -40.6514h46.8594
h25.4385h25.4385h25.4385c6.99512 0 12.7178 -5.72363 12.7178 -12.7188v-89.0352zM372.062 -10.7314c0 29.4189 53.2549 105.811 53.2549 105.811s53.2686 -76.3916 53.2686 -105.811c0 -29.4199 -23.835 -53.2686 -53.2549 -53.2686s-53.2686 23.8486 -53.2686 53.2686z
" />
    <glyph glyph-name="uniF10F" unicode="&#xf10f;" 
d="M259.877 411.429c11.998 0 21.7236 -9.72656 21.7246 -21.7227v-0.44043c0 -11.9971 -9.72559 -21.7236 -21.7227 -21.7236h-95.5254c-11.9971 0 -21.7227 9.72559 -21.7227 21.7236v0.439453c0 11.9971 9.72559 21.7227 21.7227 21.7227h11.2637
c6.01855 0 10.8984 4.87988 10.8984 10.8984v0.366211c0 13.9775 11.3301 25.3076 25.3066 25.3076h0.584961c13.9775 0 25.3076 -11.3301 25.3076 -25.3076v-0.366211c0 -6.01758 4.87988 -10.8975 10.8984 -10.8975h11.2637zM212.114 411.429
c6.05957 0 10.9717 4.91211 10.9717 10.9717s-4.91211 10.9717 -10.9717 10.9717c-6.05859 0 -10.9707 -4.91211 -10.9707 -10.9717c0 -6.05859 4.91113 -10.9717 10.9707 -10.9717zM260.96 -12.7998h-184.16c-16.1582 0 -29.2568 13.0986 -29.2568 29.2568v351.086
c0 16.1582 13.0986 29.2568 21.9424 29.2568h59.2764c-0.494141 -2.42969 -0.760742 -4.94727 -0.760742 -7.53613c0 -20.043 16.3066 -36.3496 36.3535 -36.3496h95.5215c20.0479 0 36.3525 16.3066 36.3525 36.792c0 2.42871 -0.259766 4.79688 -0.714844 7.09375h44.6006
c23.4746 0 36.5723 -13.0986 36.5723 -29.2568v-219.799c-2.43164 0.152344 -4.84473 0.370117 -7.31348 0.370117c-10.1182 0 -19.8867 -1.42578 -29.2588 -3.85156v172.08h-256v-292.571h168.599c0.801758 -12.8564 3.61133 -25.1621 8.24707 -36.5713zM369.372 126.171
c52.5146 0 95.085 -42.5723 95.085 -95.085c0 -52.5137 -42.5703 -95.0859 -95.085 -95.0859c-52.5156 0 -95.085 42.5723 -95.085 95.0859c0 52.5127 42.5703 95.085 95.085 95.085zM431.504 50.6221c5.36719 6.04199 4.8252 15.2842 -1.21582 20.6553
c-6.03906 5.37207 -15.2891 4.82227 -20.6504 -1.21387l-49.2891 -55.4502l-25.7236 20.5791c-6.30762 5.05176 -15.5186 4.0293 -20.5605 -2.28418c-5.05078 -6.30762 -4.02539 -15.5156 2.28125 -20.5586l36.5723 -29.2568
c2.69238 -2.15625 5.9209 -3.20605 9.13184 -3.20605c4.04297 0 8.05762 1.66309 10.9395 4.90625zM303.543 192h-117.027c-4.04004 0 -7.31445 3.27539 -7.31445 7.31445v7.31445c0 4.04004 3.27441 7.31445 7.31445 7.31445h117.027
c4.03906 0 7.31543 -3.27539 7.31543 -7.31445v-7.31445c-0.00195312 -4.03906 -3.27637 -7.31445 -7.31543 -7.31445zM303.543 257.829h-117.027c-4.04004 0 -7.31445 3.27539 -7.31445 7.31445v7.31445c0 4.04004 3.27441 7.31445 7.31445 7.31445h117.027
c4.03906 0 7.31543 -3.27539 7.31543 -7.31445v-7.31445c-0.00195312 -4.04004 -3.27637 -7.31445 -7.31543 -7.31445zM266.971 133.485h-80.4551c-4.04004 0 -7.31445 3.27539 -7.31445 7.31445v7.31445c0 4.04004 3.27441 7.31445 7.31445 7.31445h80.4551
c4.04102 0 7.31543 -3.27441 7.31543 -7.31445v-7.31445c-0.000976562 -4.03906 -3.27441 -7.31445 -7.31543 -7.31445zM252.343 67.6572h-65.8281c-4.04004 0 -7.31445 3.27441 -7.31445 7.31348v7.31445c0 4.04004 3.27441 7.31445 7.31445 7.31445h65.8281
c4.04004 0 7.31445 -3.27441 7.31445 -7.31445v-7.31445c0 -4.03906 -3.27441 -7.31348 -7.31445 -7.31348zM165.196 284.879l-26.9375 -30.3057c-1.32715 -1.49316 -3.1748 -2.25977 -5.03711 -2.25977c-1.47754 0 -2.96387 0.484375 -4.20312 1.47754l-16.8369 13.4678
c-2.9043 2.32129 -3.375 6.55957 -1.05078 9.46387c2.32031 2.90723 6.5625 3.37695 9.46484 1.05273l11.8428 -9.47363l22.6904 25.5273c2.46875 2.77832 6.72656 3.03223 9.50684 0.55957c2.78223 -2.47363 3.03125 -6.72852 0.560547 -9.50977zM165.196 219.803
l-26.9375 -30.3037c-1.32715 -1.49414 -3.1748 -2.25879 -5.03711 -2.25879c-1.47754 0 -2.96387 0.482422 -4.20312 1.47656l-16.8369 13.4678c-2.9043 2.32129 -3.375 6.55957 -1.05078 9.46387c2.32031 2.90723 6.5625 3.37695 9.46484 1.05273l11.8428 -9.47363
l22.6904 25.5273c2.46875 2.77832 6.72656 3.03125 9.50684 0.557617c2.78223 -2.47266 3.03125 -6.72852 0.560547 -9.50977zM165.196 157.568l-26.9375 -30.3047c-1.32715 -1.49219 -3.1748 -2.25879 -5.03711 -2.25879c-1.47754 0 -2.96387 0.482422 -4.20312 1.47656
l-16.8369 13.4697c-2.9043 2.32031 -3.375 6.55957 -1.05078 9.46289c2.32031 2.90723 6.5625 3.37793 9.46484 1.05273l11.8428 -9.47266l22.6904 25.5273c2.46875 2.77832 6.72656 3.03125 9.50684 0.558594c2.78223 -2.47461 3.03125 -6.72949 0.560547 -9.51172z
M165.196 94.8955l-26.9375 -30.3047c-1.32715 -1.49316 -3.1748 -2.25879 -5.03711 -2.25879c-1.47754 0 -2.96387 0.482422 -4.20312 1.47656l-16.8369 13.4688c-2.9043 2.32129 -3.375 6.56055 -1.05078 9.46387c2.32031 2.90723 6.5625 3.37793 9.46484 1.05273
l11.8428 -9.47266l22.6904 25.5273c2.46875 2.77832 6.72656 3.03125 9.50684 0.558594c2.78223 -2.47461 3.03125 -6.73047 0.560547 -9.51172z" />
  </font>
</defs></svg>
